<?xml version="1.0" encoding="UTF-8"?>

<!--
SPDX-FileCopyrightText: 2022 Romain Vigier <contact AT romainvigier.fr>

SPDX-License-Identifier: CC-BY-SA-4.0
-->

<svg width="16" height="16" version="1.1" viewBox="0 0 16 16" xmlns="http://www.w3.org/2000/svg">
 <path d="m14 1h-9l-2 8h2l-1 6 8-8h-2z"/>
</svg>
